{
    "type": "FeatureCollection",
    "features": [
        {
            "type": "Feature",
            "properties": {
                "message": "Mineola, NY",
                "loc" : "mineola",
                "iconSize": [25, 25]
            },
            "geometry": {
                "type": "Point",
                "coordinates": [
                    -73.6406,
                    40.7492
                ]
            }
        },
        {
            "type": "Feature",
            "properties": {
                "message": "Princeton, NJ",
                "loc" : "princeton",
                "iconSize": [25, 25]
            },
            "geometry": {
                "type": "Point",
                "coordinates": [
                    -74.6593,
                    40.349
                ]
            }
        },
        {
            "type": "Feature",
            "properties": {
                "message": "Providence, RI",
                "loc": "providence",
                "iconSize": [25, 25]
            },
            "geometry": {
                "type": "Point",
                "coordinates": [
                    -71.412834,
                    41.8239
                ]
            }
        },
        {
            "type": "Feature",
            "properties": {
                "message": "Pittsburg, PA",
                "loc" : "pittsburgh",
                "iconSize": [25, 25]
            },
            "geometry": {
                "type": "Point",
                "coordinates": [
                    -79.9754,
                   40.4406
                ]
            }
        }
    ]
}
